module terraform-provider-beeceptor

go 1.21

require github.com/hashicorp/terraform-plugin-framework v1.8.0

require (
	github.com/fatih/color v1.16.0 // indirect
	github.com/golang/protobuf v1.5.4 // indirect
	github.com/hashicorp/go-hclog v1.6.2 // indirect
	github.com/hashicorp/go-plugin v1.6.0 // indirect
	github.com/hashicorp/go-uuid v1.0.3 // indirect
	github.com/hashicorp/terraform-plugin-go v0.23.0 // indirect
	github.com/hashicorp/terraform-plugin-log v0.9.0 // indirect
	github.com/hashicorp/terraform-registry-address v0.2.3 // indirect
	github.com/hashicorp/terraform-svchost v0.1.1 // indirect
	github.com/hashicorp/yamux v0.1.1 // indirect
	github.com/mattn/go-colorable v0.1.13 // indirect
	github.com/mattn/go-isatty v0.0.20 // indirect
	github.com/mitchellh/go-testing-interface v1.14.1 // indirect
	github.com/oklog/run v1.0.0 // indirect
	github.com/stretchr/testify v1.8.2 // indirect
	github.com/vmihailenco/msgpack/v5 v5.4.1 // indirect
	github.com/vmihailenco/tagparser/v2 v2.0.0 // indirect
	golang.org/x/net v0.23.0 // indirect
	golang.org/x/sys v0.18.0 // indirect
	golang.org/x/text v0.14.0 // indirect
	google.golang.org/genproto/googleapis/rpc v0.0.0-20240227224415-6ceb2ff114de // indirect
	google.golang.org/grpc v1.63.2 // indirect
	google.golang.org/protobuf v1.34.0 // indirect
)
